{
    "defaultSeverity": "warning",
    "extends": [
        "tslint:recommended",
        "tslint-react",
        "tslint-sonarts",
        "tslint-immutable",
        "tslint-config-prettier"
    ],
    "rules": {
        "jsx-no-lambda": false,
        "interface-name": ["never-prefix"],
        "member-access": [true, "no-public"],
        "ban-comma-operator": true,
        "no-small-switch": false,
        "no-implicit-dependencies": true,
        "no-inferred-empty-object-type": true,
        "no-unnecessary-type-assertion": true,
        "no-parameter-reassignment": true,
        "prefer-conditional-expression": true,
        "prefer-readonly": true,
        "prefer-object-spread": true,
        "strict-type-predicates": true,
        "strict-boolean-expressions": [true, "allow-null-union", "allow-undefined-union"],
        "no-var-keyword": true,
        "readonly-keyword": true,
        "readonly-array": true,
        "no-delete": true,
        "no-method-signature": true,
        "no-loop-statement": true,
        "promise-function-async": true,
        "await-promise": true
    }
}
